CKMRsim-example-1 • CKMRsim
…
Estimating Power for Relationship Inference

Estimating the power that this set of markers is expected to give us for pairwise relationship inference involves doing Monte Carlo simulations from the allele frequencies in the population. So, we are going to first have to estimate the allele frequencies from our genotype data set. And, we have to present those allele frequencies in a specific format that CKMRsim is expecting.

Allele Frequency Input Format

CKMRsim is designed to be able to work with information about markers that are in known locations on different chromosomes within the genome. Note that genome coordinates of markers are not required but the input format has a place to record the chromome and position of each marker. If these are not known, we fill them in with dummy values, as will be shown. If simulations are done without physical linkage, then the values used have no effect.

The package data long_markers shows an example of the allele frequency format that CKMRsim expects. It looks like this:

long_markers
#> # A tibble: 53,637 x 7
#>    Chrom Locus     Pos Allele LocIdx AlleIdx   Freq
#>    <int> <chr>   <dbl> <chr>   <int>   <int>  <dbl>
#>  1     4 chr4-1   3845 a1          1       1 0.790 
#>  2     4 chr4-1   3845 a2          1       2 0.210 
#>  3     4 chr4-2  71520 a1          2       1 0.485 
#>  4     4 chr4-2  71520 a3          2       2 0.237 
#>  5     4 chr4-2  71520 a2          2       3 0.167 
#>  6     4 chr4-2  71520 a4          2       4 0.112 
#>  7     4 chr4-3 105104 a3          3       1 0.499 
#>  8     4 chr4-3 105104 a2          3       2 0.402 
#>  9     4 chr4-3 105104 a1          3       3 0.0989
#> 10     4 chr4-4 256481 a4          4       1 0.402 
#> # … with 53,627 more rows
…
# then make some long format genotypes
long_genos <- genos1 %>% 
  gather(key = "loc", value = "Allele", -NMFS_DNA_ID) %>%
  separate(loc, into = c("Locus", "gene_copy"), sep = "\\.") %>%
  mutate(Allele = as.character(Allele)) %>%
  mutate(Allele = ifelse(Allele == "0", NA, Allele)) %>%
  rename(Indiv = NMFS_DNA_ID)

IMPORTANT NOTE The data frame long_genos here is a long-format specification of multilocus genotypes of individuals. This is a a basic input type that will be used later in CKMRsim. It looks like this:

long_genos
#> # A tibble: 950,196 x 4
#>    Indiv   Locus                              gene_copy Allele
#>    <chr>   <chr>                              <chr>     <chr> 
#>  1 R011743 Plate_1_A01_Sat_GW603857_consensus 2         1     
#>  2 R011744 Plate_1_A01_Sat_GW603857_consensus 2         1     
#>  3 R011753 Plate_1_A01_Sat_GW603857_consensus 2         1     
#>  4 R011755 Plate_1_A01_Sat_GW603857_consensus 2         1     
#>  5 R011765 Plate_1_A01_Sat_GW603857_consensus 2         1     
#>  6 R011766 Plate_1_A01_Sat_GW603857_consensus 2         1     
#>  7 R011769 Plate_1_A01_Sat_GW603857_consensus 2         1     
#>  8 R011772 Plate_1_A01_Sat_GW603857_consensus 2         1     
#>  9 R011775 Plate_1_A01_Sat_GW603857_consensus 2         1     
#> 10 R011778 Plate_1_A01_Sat_GW603857_consensus 2         1     
#> # … with 950,186 more rows
…
# see what that looks like:
alle_freqs
#> # A tibble: 993 x 7
#>    Chrom   Pos Locus                              Allele     Freq AlleIdx LocIdx
#>    <chr> <int> <chr>                              <chr>     <dbl> <lgl>   <lgl> 
#>  1 Unk       1 Plate_1_A01_Sat_GW603857_consensus 1       6.33e-1 NA      NA    
#>  2 Unk       1 Plate_1_A01_Sat_GW603857_consensus 2       3.66e-1 NA      NA    
#>  3 Unk       1 Plate_1_A01_Sat_GW603857_consensus 3       4.10e-4 NA      NA    
#>  4 Unk       1 Plate_1_A01_Sat_GW603857_consensus 4       2.46e-4 NA      NA    
#>  5 Unk       1 Plate_1_A01_Sat_GW603857_consensus 5       8.21e-5 NA      NA    
#>  6 Unk       1 Plate_1_A01_Sat_GW603857_consensus 6       8.21e-5 NA      NA    
#>  7 Unk       2 Plate_1_A11_Sat_GE820299_consensus 1       7.01e-1 NA      NA    
#>  8 Unk       2 Plate_1_A11_Sat_GE820299_consensus 2       2.49e-1 NA      NA    
#>  9 Unk       2 Plate_1_A11_Sat_GE820299_consensus 3       2.45e-2 NA      NA    
#> 10 Unk       2 Plate_1_A11_Sat_GE820299_consensus 4       1.19e-2 NA      NA    
#> # … with 983 more rows
…
The main function here is extract_logls(). It simply takes an object of class Qij and uses the information within it to compute log-likelihood ratios from all the genotype probabilities that are stored within it. There is one small twist: the numerator and denominator of the likelihood ratios can be mixtures of different relationship categories. For example, instead of just computing PO/U, you might want to compute a log likelihood ratio that reflects your belief that, of the genotyping pairs you are sampling, 95% are unrelated and the other 5% are full siblings. Then you might want to base your inference on a log-likelihood ratio that looked like: PO/(0.95 * U + 0.05 * FS).

Often you will not want to do that, but, because extract_logls() is designed to do that, you have explicitly tell it how much weight to give each relationship category in the numerator and the denominator of the log likelihood ratio.

An example here should help. Let’s say we are interested in the distribution of the log likelihood ratio PO/U. Then we would do:

PO_U_logls <- extract_logls(ex1_Qs,
                            numer = c(PO = 1),
                            denom = c(U = 1))

That returns a tibble of log likelihood values for the numerator and the denominator and also the ratio of the two, one row for each simulated value in ex1_Qs (in the present case that is 10,000 values for each of the true relationship being PO, FS, HS, and U):

PO_U_logls
#> # A tibble: 40,000 x 11
#>    simtype PO_sim rando_miss_n numer_wts denom_wts true_relat   rep numer_logl
#>    <chr>   <chr>         <dbl> <chr>     <chr>     <chr>      <int>      <dbl>
#>  1 unlink… not_f…            0 PO=1      U=1       PO             1      -260.
#>  2 unlink… not_f…            0 PO=1      U=1       PO             2      -228.
#>  3 unlink… not_f…            0 PO=1      U=1       PO             3      -202.
#>  4 unlink… not_f…            0 PO=1      U=1       PO             4      -222.
#>  5 unlink… not_f…            0 PO=1      U=1       PO             5      -265.
#>  6 unlink… not_f…            0 PO=1      U=1       PO             6      -230.
#>  7 unlink… not_f…            0 PO=1      U=1       PO             7      -244.
#>  8 unlink… not_f…            0 PO=1      U=1       PO             8      -246.
#>  9 unlink… not_f…            0 PO=1      U=1       PO             9      -228.
#> 10 unlink… not_f…            0 PO=1      U=1       PO            10      -199.
#> # … with 39,990 more rows, and 3 more variables: denom_logl <dbl>,
#> #   logl_ratio <dbl>, true_log_prob <dbl>
…
We see we would have had a false positive rate around 9.82e-07, if we used a logl ratio cutoff of 5. Since there are 1847 adults and 4244 juvniles in this study, there will be \(1847 \times 4244 = 7,838,668\) pairs being tested for being parent-offspring pairs. A per-pair FPR of 9.82e-07 would leave us with an expected number of false positive pairs on the order of 8.

My general recommendation for being confident about not erroneously identifying unrelated individuals as related pairs is to require that the FPR be about 10 to 100 times smaller than the reciprocal of the number of comparisons. So, in this case,

0.1 * (4244 * 1847) ^ (-1)
#> [1] 1.275727e-08

or smaller would be a good FPR to shoot for. That would be a logl ratio cutoff of between 12 and 15. For fun, let’s look at FPRs and FNRs at a number of such cutoffs:

ex1_PO_is_8_12 <- mc_sample_simple(ex1_Qs, 
                 nu = "PO",
                 de = "U", 
                 lambda_stars = seq(12, 15, by = .1))
ex1_PO_is_8_12
#> # A tibble: 36 x 10
#>       FNR     FPR       se num_nonzero_wts Lambda_star pstar mc_method numerator
#>     <dbl>   <dbl>    <dbl>           <int>       <dbl> <chr> <chr>     <chr>    
#>  1 0.0039 1.69e-8 1.98e- 9            9961        12   PO    IS        PO       
#>  2 0.0041 1.58e-8 1.81e- 9            9959        12.1 PO    IS        PO       
#>  3 0.0042 1.52e-8 1.73e- 9            9958        12.2 PO    IS        PO       
#>  4 0.0046 1.33e-8 1.46e- 9            9954        12.3 PO    IS        PO       
#>  5 0.0047 1.29e-8 1.39e- 9            9953        12.4 PO    IS        PO       
#>  6 0.0049 1.21e-8 1.27e- 9            9951        12.5 PO    IS        PO       
#>  7 0.0051 1.14e-8 1.17e- 9            9949        12.6 PO    IS        PO       
#>  8 0.0052 1.11e-8 1.12e- 9            9948        12.7 PO    IS        PO       
#>  9 0.0053 1.08e-8 1.09e- 9            9947        12.8 PO    IS        PO       
#> 10 0.0057 9.71e-9 9.44e-10            9943        12.9 PO    IS        PO       
#> # … with 26 more rows, and 2 more variables: denominator <chr>,
#> #   true_relat <chr>
…
# note, num_cores is set to 1 because more than that breaks
# it on CRAN checks.  But, leave it blank (i.e., don't use the
# num_core option) to, by default, use all
# your cores in parallel on a non-windows machine.

Now, look at all those with logl_ratio > 12 as well, (also close to about 14 or 15, which we determined from simulation to be a reasonable cutoff value, albeit with a high false negative rate.)

fs_pairwise_logls %>%
  filter(logl_ratio > 12) %>%
  arrange(desc(logl_ratio))
#> # A tibble: 41 x 4
#>    D2_indiv D1_indiv logl_ratio num_loc
#>    <chr>    <chr>         <dbl>   <int>
#>  1 R014981  R014982        73.7      76
#>  2 R021481  R027461        63.6      78
#>  3 R031276  R031280        58.8      78
#>  4 R014137  R014139        45.0      77
#>  5 R013839  R014675        42.9      78
#>  6 R020421  R027348        41.4      78
#>  7 R021571  R025619        41.0      78
#>  8 R014520  R014536        38.8      78
#>  9 R021500  R021511        36.5      78
#> 10 R015404  R020276        36.0      78
#> # … with 31 more rows
…
