CKMRsim-example-2-microsatellites • CKMRsim
…
FS_candidates <- pairwise_kin_logl_ratios(
  D1 = GaF$Genos, 
  D2 = GaF$Genos, 
  CK = CK, 
  numer = "FS", 
  denom = "U", 
  keep_top = 10,
  num_cores = 1  # only on here for CRAN CHECK.  Remove for personal use
  ) %>%
  arrange(desc(logl_ratio))
#> D1 and D2 are identical: dropping self comparisons and keeping only first instance of each pair

FS_candidates
#> # A tibble: 615 × 4
#>    D2_indiv                         D1_indiv                  logl_ratio num_loc
#>    <chr>                            <chr>                          <dbl>   <int>
#>  1 POTMIDBTLUWST_POTMIDBTLUWST_03.3 POTMIDBTLUWST_POTMIDBTLU…      26.4       92
#>  2 POTMIDBTLUWST_POTMIDBTLUWST_19.1 POTMIDBTLUWST_POTMIDBTLU…      20.4       94
#>  3 POTMIDBTLUWST_POTMIDBTLUWST_04.3 POTMIDBTLUWST_POTMIDBTLU…      15.2       94
#>  4 POTMIDBTLUWST_POTMIDBTLUWST_06.2 POTMIDBTLUWST_POTMIDBTLU…      14.1       91
#>  5 POTMIDBTLUWST_POTMIDBTLUWST_24.1 POTMIDBTLUWST_POTMIDBTLU…      13.1       75
#>  6 POTMIDBTLUWST_POTMIDBTLUWST_05.2 POTMIDBTLUWST_POTMIDBTLU…      13.1       64
#>  7 POTMIDBTLUWST_POTMIDBTLUWST_04.3 POTMIDBTLUWST_POTMIDBTLU…      12.1       91
#>  8 POTMIDBTLUWST_POTMIDBTLUWST_02.2 POTMIDBTLUWST_POTMIDBTLU…      10.1       83
#>  9 POTMIDBTLUWST_POTMIDBTLUWST_05   POTMIDBTLUWST_POTMIDBTLU…       9.80      58
#> 10 POTMIDBTLUWST_POTMIDBTLUWST_18.2 POTMIDBTLUWST_POTMIDBTLU…       8.05      89
#> # ℹ 605 more rows
…
