CKMRsim-developer-notes • CKMRsim
…
            2022-10-26

      CKMRsim-developer-notes.Rmd

These are some notes that Eric kept while putting this package
together, mostly to remind him of the flow of everything and to put
little notes in describing how everything goes together.

Marker definitions

Markers have to be defined in a data frame. Here is an example:

long_markers

## # A tibble: 53,637 × 7
##    Chrom Locus     Pos Allele LocIdx AlleIdx   Freq
##    <int> <chr>   <dbl> <chr>   <int>   <int>  <dbl>
##  1     4 chr4-1   3845 a1          1       1 0.790 
##  2     4 chr4-1   3845 a2          1       2 0.210 
##  3     4 chr4-2  71520 a1          2       1 0.485 
##  4     4 chr4-2  71520 a3          2       2 0.237 
##  5     4 chr4-2  71520 a2          2       3 0.167 
##  6     4 chr4-2  71520 a4          2       4 0.112 
##  7     4 chr4-3 105104 a3          3       1 0.499 
##  8     4 chr4-3 105104 a2          3       2 0.402 
##  9     4 chr4-3 105104 a1          3       3 0.0989
## 10     4 chr4-4 256481 a4          4       1 0.402 
## # … with 53,627 more rows
…
