Simulating-linked-markers • CKMRsim
…
An Example

‘CKMRsim’ comes with an example data set of linked markers. The data
themselves are concocted—they are merely the microhaplotypes that have
been assigned some fictitious positions within a genome—but that is
useful for demonstration. The data are allele frequencies in the format
required by ‘CKMRsim’. Here are the first few lines of them”

linked_mhaps
#> # A tibble: 825 × 7
#>    Chrom Locus            Pos Allele LocIdx AlleIdx   Freq
#>    <int> <chr>          <dbl> <chr>   <int>   <int>  <dbl>
#>  1     1 tag_id_2255  2778713 AGC         1       1 0.745 
#>  2     1 tag_id_2255  2778713 AAC         1       2 0.223 
#>  3     1 tag_id_2255  2778713 AGT         1       3 0.0326
#>  4     1 tag_id_1508 10014085 GG          2       1 0.956 
#>  5     1 tag_id_1508 10014085 AG          2       2 0.0220
#>  6     1 tag_id_1508 10014085 GA          2       3 0.0220
#>  7     1 tag_id_2513 11890256 CGGAA       3       1 0.621 
#>  8     1 tag_id_2513 11890256 CGGAG       3       2 0.121 
#>  9     1 tag_id_2513 11890256 CGGGA       3       3 0.0895
#> 10     1 tag_id_2513 11890256 CGGGG       3       4 0.0684
#> # … with 815 more rows
…
